{
  "type": "service_account",
  "project_id": "gspreadintern",
  "private_key_id": "ce5d45fde776cb820a17a398a8b17731a85acaeb",
  "private_key": "-----BEGIN PRIVATE KEY-----\nMIIEvQIBADANBgkqhkiG9w0BAQEFAASCBKcwggSjAgEAAoIBAQCO6EEDCJxWg75/\n9e5gMj98OktygAuWT/QiHOEF4/A4Q0+tOGqU9ohdCUvMmlerHQ25syYbJcYBbYbA\nG1GowsMG0cuz+uwO5izE49A5yAfZVqbjJm6UoLLPpTxfDUlnB4N+WlIijOvYU19R\nhmiOsAgRrrs0jmnOXuun9ijNSOWBeUDMjLCsXCUh79314ioQIElS8fOpbp3+u85F\nKHCMUTAS2REcP2VO5Px3PC7XXi7wVKRhFVGGG8fE4oOGPaOq1GrBSran3xNpkcNb\nmxOkv/gq7wZEmFh1ayC1bLKKyGv9Y2D9ImYG4kYjC4SOF5xkuzMMm1QFc9zq5u1W\n3uwDoBNNAgMBAAECggEAF1pte1cuIzYyzJruKkKz3LNzDmJN4nGs6eExxaJm6G7Z\nh6tjQXYbOSbyf9xODMy56DmWNdQBrEyPe3fLa6puMABbS01rQ5EKSl+XMMYXQEVY\njuDCK+Ap8GRmffsAHoncC2srpnFEfky7lClEj2LFYsxc090c/chFtuQzbT6nILXn\nJSfnpQL2NU7Kx7Sdrcind0u1dxvPYcol5OFe4pykAhbXnJfO26D+p3cKpgSkVhWA\nGQDByDYNpHuqd2bGDuW+hIvmQUfUJxH+sz3QRDM/h8kEj+xXYQfFkt3WRsrDijtY\niCJku0s3HzP/LH3ZLaB0fwYbj744oVqsaiBbHYdzOQKBgQC/VNCa93FwrOnb7/A6\n5hX4Rez4ysFhU6DJQGbpBL001p/TIQbaUSfK197fHEWJw0G4xdQQ8NcozAfqDz9S\nxkTR+Mh1jd5LBeBS3JkyjK6Vkxam4Ao7Ohdk/8zPDnayVnQjlLbCf+CxqGsH/AvG\npIlEJlMTO+ozov6OxcvnkgbEZQKBgQC/NXwvBb/xPj4jF/0Zk8sM1mt3O14ifFmE\nSrWGBiuM4SSgZj0RXa3XT206eq/8yGV/Fzc3zKBcJixnfjfuJMCc5MbQbCCZkKJR\n7IbS+QRYpH0tupLyiYqjEVOJnhT3deY6Ws2iWgPh+dgebVFregLmdMYyxX3FtlWa\nDJtZ1GJgyQKBgHOUoufabtboPeW1DmQmNkNiyoKIyUUoJcstcn11dW8D8Ey0eNVN\njUJGIcaZ55APOhaKu074jqGAj49fYpt4Vn6ZUU9iQlUD2b10sb8NqTGGR3rLgKLC\ntvs2Y9z5Gc8l1sbfwX/BjFUGLpIGOn7nSly24hyOZy6GWkyZRFJBroDZAoGAVIck\nevUjwVYuyfzU2vXHEcnIgFEycDRgrmcIkFMx9XmiY3ZPENpE+6YVN4D9Q9ajZ+ev\ndW90hMgrYSUfPJvqunE4ovLqBnk2CNlzUNjc3wL4g7qzM50yOJx0PaYwxqTMPofd\n2CPLC58Tt3/EOqsZlR+Sbud3jmvos81W8AM/6mECgYEAn0LUeLjFTHbwp/VVdVMw\nw1++NZ1APZ3CHlFOcdLsk+NxLWlftuB5lotgWmn1/JhH3HlbLGiWKXF/ha4/pchM\nRNYfhyubzcTCECdACZt6hBOpyN0a8GlNjlldEu0Wrs89sRAGxGXhjI1vHP2edjq2\nWuhUIursJHnbek6w3cMDY3A=\n-----END PRIVATE KEY-----\n",
  "client_email": "gspread-internaccount@gspreadintern.iam.gserviceaccount.com",
  "client_id": "111590482431088164128",
  "auth_uri": "https://accounts.google.com/o/oauth2/auth",
  "token_uri": "https://oauth2.googleapis.com/token",
  "auth_provider_x509_cert_url": "https://www.googleapis.com/oauth2/v1/certs",
  "client_x509_cert_url": "https://www.googleapis.com/robot/v1/metadata/x509/gspread-internaccount%40gspreadintern.iam.gserviceaccount.com"
}
